[{
        "UserName": "Lola",
        "Email": "lola@mail.com",
        "DateOfBirth": "1994-02-21",
        "Created": "2017-08-02",
        "LastActive": "2017-08-02"
    },
    {
        "Username": "Dorothy",
        "Email": "dorothy@mail.com",
        "DateOfBirth": "1979-04-19",
        "Created": "2017-01-21",
        "LastActive": "2017-01-21"
    },
    {
        "Username": "Reba",
        "Email": "reba@mail.com",
        "DateOfBirth": "1984-12-05",
        "Created": "2017-06-24",
        "LastActive": "2017-06-24"
    },
    {
        "Username": "Annmarie",
        "Email": "annmarie@mail.com",
        "DateOfBirth": "1970-02-25",
        "Created": "2017-07-17",
        "LastActive": "2017-07-17"
    },
    {
        "Username": "Ashley",
        "Email": "ashley@mail.com",
        "DateOfBirth": "1953-03-01",
        "Created": "2017-03-25",
        "LastActive": "2017-03-25"
    },
    {
        "Username": "Roy",
        "Email": "roy@mail.com",
        "DateOfBirth": "1993-08-21",
        "Created": "2017-08-03",
        "LastActive": "2017-08-03"
    },
    {
        "Username": "Duke",
        "Email": "duke@mail.com",
        "DateOfBirth": "1996-09-07",
        "Created": "2017-07-07",
        "LastActive": "2017-07-07"
    },
    {
        "Username": "Lloyd",
        "Email": "lloyd@mail.com",
        "DateOfBirth": "1957-03-07",
        "Created": "2017-08-22",
        "LastActive": "2017-08-22"
    },
    {
        "Username": "Larsen",
        "Email": "larsen@mail.com",
        "DateOfBirth": "1969-08-15",
        "Created": "2017-02-17",
        "LastActive": "2017-02-17"
    },
    {
        "Username": "Simon",
        "Email": "simon@mail.com",
        "DateOfBirth": "1984-02-19",
        "Created": "2017-06-27",
        "LastActive": "2017-06-27"
    }
]