{
    "unauthorized": "Attribute-based accecc control refused the request. You don't have access right.",
    "abac": "ABAC Middleware Invoked",
    "addressCodeNotFound": "User '{0}' doesn't have an address defined with code '{1}' or It is not confirmed",
    "saveFailed": "Fail to save changes",
    "UnknownRoleName": "Failed to continue with unknown role name",
    "drugNotFound": "Drug '{0}' doesn't match out records",
    "prescriptionNotFound": "Visit '{0}' not found or it doesn't have prescription '{1}'",
    "labTestNotFound": "Lab test '{0}' doesn't match out records",
    "visitLabTestNotFound": "Visit '{0}' not found or it doesn't have lab test '{1}'",
    "radiographNotFound": "Radiograph '{0}' doesn't match out records",
    "visitRadiographNotFound": "Visit '{0}' not found or it doesn't have radiograph '{1}'",
    "surgeryCodeNotFound": "Surgery code '{0}' doesn't match our records",
    "visitSurgeryNotFound": "Visit '{0}' not found or it doesn't have Surgery '{1}'",
    "visitNotFound": "Visit code '{0}' doesn't match our records",
    "visitAddFailed": "Failed to add new visit",
    "modifyVisitFailed": "Failed to modify visit '{0}'",
    "removeVisitFailed": "Failed to remove visit '{0}'",
    "visitClaimAddDone": "Visit claim added successfully.",
    "visitClaimStatusNotAllowed": "You're not allowed to set visit status = {0}.",
    "visitClaimManageDone": "Visit claims managed successfully.",
    "visitClaimsGetDone": "Visit claims fetched successfully.",
    "visitDiagnosisExists": "Visit '{0}' diagnosis has been already written",
    "diagnosisAddFailed": "Failed to add diagnosis",
    "diagnosisAddDone": "Diagnosis added successfully",
    "diagnosisNotFound": "Diagnosis code '{0}' doesn't match our records",
    "diagnosisDeleteFailed": "Failed to delete diagnosis",
    "diagnosisModifyFailed": "Diagnosis update failed",
    "diagnosisModifyDone": "Diagnosis created successfully",
    "patientNotFound": "Patient code '{0}' doesn't match any of our records",
    "userPatientNotFound": "User doesn't have an active patient associated with him",
    "serviceProviderConnectionNotFound": "Service provider doesn't have connection '{0}'",
    "serviceStafferNotFound": "Service staffer code '{0}' doesn't match any of our records",
    "rolesFetchDone": "Roles fetched successfully",
    "roleAddDone": "Role added successfully",
    "roleDeleteDone": "Role '{0}' deleted successfully",
    "roleUpdateDone": "Role '{0}' updated and saved successfully",
    "RolesRequestsFetchDone": "Requests for roles fetched successfully",
    "priceNotFound": "Price code '{0}' not found",
    "prescriptionsFetchDone": "Prescriptions fetched successfully",
    "prescriptionFetchDone": "Visit '{0}' prescription '{1}' fetched successfully",
    "prescriptionAddDone": "Prescreption for visit '{0}' added successfully",
    "prescriptionModifyDone": "Prescreption '{1}' for visit '{0}' modified successfully",
    "prescriptionRemoveDone": "Prescreption '{1}' for visit '{0}' removed successfully",
    "InavalidUserCredentials": "Invalid credentials, Invalid username or password",
    "InvalidUserName": "UserName <{0}> doesn't match our records",
    "UnknownUserId": "User identifier doesn't match our records",
    "UserExists": "Username already exists",
    "UserCreated": "User created successfully",
    "UserLogged": "User logged successfully",
    "RegistrationFailed": "Failed to register new user",
    "UserAccountFetched": "User account fetched successfully",
    "UserAccountModifyDone": "User account modified successfully",
    "UserAccountModifyFailed": "User account modify failed",
    "UserEmailAddressNotFound": "User '{0}' doesn't have an email defined with address '{1}' or It's not confirmed yet",
    "UserPhoneNumberNotFound": "User '{0}' doesn't have this phone number '{1}' or It's not confirmed yet",
    "userAddressesFetchDone": "User '{0}' addresses fetched successfully.",
    "pendingUserAddressesFetchDone": "Pending user addresses fetched successfully.",
    "userAddressPostDone": "Address saved and it's waiting for admin to confirm.",
    "userAddressModifyDone": "Address modified successfully.",
    "userAddressConfirmDone": "Address confirmed successfully.",
    "userAddressCodeNotFound": "Address {0} doesn't appear in {1}'s list.",
    "userAddressDeletedDone": "Address deleted successfully.",
    "UserAddressAlreadyConfirmed": "User address is already confirmed",
    "UserRoleAddDone": "User '{0}' added to role '{1}' successfully",
    "UserRoleRequestDone": "Request for role added and it is pending now",
    "UserRoleAlreadyExisting": "User '{0}' has already had role '{1}'",
    "UserRoleRequested": "User '{0}' has already requested role '{1}' and it's pending",
    "FailedUpdateUserRoles": "Failed to update user's roles",
    "UserRoleNotFound": "User doesn't have this role",
    "ManageUserRoleFailed": "Failed to manage user role '{0}'",
    "ManageUserRoleSucceeded": "Manage user's role completed successfully",
    "RequstUserRoleSucceeded": "User's request for role added successfully, Call your administrator for more info",
    "PedningUserRolesGet": "Pending requests for roles fetched successfully",
    "UserRolesFetched": "User roles fetched successfully",
    "UserRoleDeleteDone": "User unassigned from role '{0}' successfully",
    "RoleWithSpMatchFailed": "Failed match role name '{0}' with service provider type",
    "rulesFetched": "Rules fetched successfully",
    "rulesRequestsFetched": "Rules' requests fetched successfully",
    "ruleAdded": "Rule added successfully",
    "PatientCreated": "Patient added succesfully",
    "InsuranceCompanyCreated": "Insurance company added succesfully",
    "PatientCreateError": "Patient could not be added",
    "VisitCreateError": "visit could not be added",
    "PatientDeleteError": "Patient could not be deleted",
    "InsurancePackageDeleteError": "Insurance package could not be deleted",
    "InsurancePackageUpdateError": "Insurance package could not be modified",
    "PatientModifyError": "Patient could not be modifief",
    "InsurancePackageCreateError": "Insurance package could not be added",
    "InsuranceCompanyCreateError": "Insurance company could not be added",
    "PatientUpdated": "Patient updated succesfully",
    "InsurancePackageCreated": "Insurance package added succesfully",
    "InsurancePackageUpdated": "Insurance package modified succesfully",
    "InsurancePackagesFetched": "Insurance packages fetched succesfully",
    "InsurancePackageDeleted": "Insurance packages deleted succesfully",
    "InsuranceCompanyUpdated": "Insurance company updated succesfully",
    "TpaUpdated": "Third-party administrator updated succesfully",
    "InsuranceCompanyFetched": "Insurance company feteched succesfully",
    "ThirdPartyAdministratorFetched": "Third-party administrator feteched succesfully",
    "InsuranceCompaniesFetched": "Insurance companies feteched succesfully",
    "PatientsFetched": "Patients feteched succesfully",
    "InsuranceCompanyDeleted": "Insurance companies deleted succesfully",
    "icDeleteFailed": "Failed to delete insurance company '{0}'",
    "icModifyFailed": "Failed to modify insurance company '{0}'",
    "InsuranceCompanyNotFound": "Insurance company could not be found",
    "InsurancePackageNotFound": "Insurance package could not be found",
    "TpaNotFound": "Third-party administrator could not be found",
    "ThirdPartyAdministratorCreated": "Third-party administrator created succesfully",
    "ThirdPartyAdministratorsFetched": "Third-party administrators feteched succesfully",
    "TpaDeleted": "Third-party administrator deleted succesfully",
    "TpaDeleteFailed": "Failed to delete Third-party administrator '{0}'",
    "TpaModifyFailed": "Failed to modify Third-party administrator '{0}'",
    "PatientDeleted": "Patient deleted succesfully",
    "IcOrTpaNotFound": "Insurance comapny or third party administrator not found",
    "ConnectionTpaNotFound": "Insurance connection not found",
    "InsuranceConnectionAdded": "Insurance company and TPA successfully connected",
    "InsuranceConnectionFailed": "Couldn't connect insrance company and TPA",
    "ConnectionNotDeleted": "Couldn't delete insrance connection",
    "ConnectionDeleted": "Insurance connection deleted succesfully",
    "ServiceProvidersKeys": "Service providers type is a required field",
    "ServiceProviderKeys": "Service provider type and title are a required fields",
    "ServiceProvidersFetched": "Service providers fetched successfully",
    "ServiceProviderFetched": "Service provider fetched successfully",
    "ServiceProviderDeleted": "Service provider deleted successfully",
    "FailedUpdateServiceProvider": "Failed to update service provider",
    "ServiceProviderModifyDone": "Service provider has been updated successfully",
    "ServiceStaffersKeys": "Service staffers type is a required field",
    "ServiceStafferKeys": "Service staffer type and title are a required fields",
    "ServiceStaffersFetched": "Service staffers fetched successfully",
    "ServiceStafferFetched": "Service staffer fetched successfully",
    "ServiceStafferDeleted": "Service staffer deleted successfully",
    "ServiceStafferNotFound": "Service staffer title doesn't match out records",
    "FailedUpdateServiceStaffer": "Failed to update service staffer",
    "ServiceStafferModifyDone": "Service provider has been updated successfully",
    "BadStafferMembership": "Staffer '{0}' is already member in '{1}' staff Or request doesn't confirmed yet",
    "ProviderStaffFetchDone": "Servicer provider's '{0}' staff fetched successfully",
    "StafferStaffFetchDone": "Servicer staffer's '{0}' staff fetched successfully",
    "MemberAddDone": "Staff's member addred successfully",
    "MemberConfirmDone": "Staff's member confirmed successfully",
    "MemberRemoveDone": "Staff's member removed successfully",
    "CompleteFetchSurgeries": "Surgeries fetched successfully",
    "CompleteAddSurgery": "Surgery added successfully",
    "SurgeryPurchasesFetched": "Surgery purchases fetched successfully",
    "SurgeryPurchaseFetched": "Surgery purchase fetched successfully",
    "LabTestPurchaseFetched": "Lab Test purchase fetched successfully",
    "CompleteUpdateSurgery": "Surgery updated successfully",
    "CompleteDeleteSurgery": "Surgery deleted successfully",
    "SurgeryPurchaseAddFailed": "Failed to add surgery purchase",
    "SurgeryPurchaseCreated": "Surgery purchase created successfully",
    "VisitsFetched": "Visits fetched successfully",
    "VisitFetched": "Visit fetched successfully",
    "VisitDeleted": "Visit deleted successfully",
    "FailedUpdateVisit": "Failed to update Visit",
    "VisitCreated": "Visit created succesfully",
    "VisitUpdated": "Visit updated succesfully",
    "PrescriptionCodeNotFound": "Prescription code '{0}' doesn't match our records",
    "PrescriptionNotFound2": ": Prescription not found",
    "PrescriptionPurchaseNotFound": ": Prescription purchase not found",
    "PrescriptionPurchaseCreated": "Prescription purchase created successfully",
    "PrescriptionPurchasesFetched": "Prescription purchases fetched",
    "PrescriptionPurchaseFetched": "Prescription purchase fetched",
    "PrescriptionPurchaseAddFailed": "Failed to add prescription purchase",
    "CompleteFetchVisitSurgeries": "Visit's surgeries fetched successfully",
    "CompleteAddVisitSurgery": "Surgery added successfully",
    "CompleteUpdateVisitSurgery": "Surgery updated successfully",
    "CompleteDeleteVisitSurgery": "Surgery deleted successfully",
    "VisitSurgeryCodeNotFound": "Surgery code '{0}' doesn't match our records",
    "PrescribedSurgeryNotFound": ": Prescribed surgery not found",
    "SurgeryPurchaseNotFound": ": Surgery purchase not found",
    "CompleteFetchVisitLabTests": "Visit's lab tests fetched successfully",
    "CompleteFetchVisitLabTestDetails": "Visit's lab test '{0}' fetched successfully",
    "CompleteAddVisitLabTest": "Lab test added successfully",
    "CompleteUpdateVisitLabTest": "Lab test updated successfully",
    "CompleteDeleteVisitLabTest": "Lab test deleted successfully",
    "VisitLabTestCodeNotFound": "Lab test code '{0}' doesn't match our records",
    "PrescribedLabTestNotFound": ": Prescribed lab test not found",
    "VisitNotFound2": ": Visit not found",
    "NoBaseVisitFound": "No base visit associated with visit '{0}'",
    "CompleteFetchVisitRadiographs": "Visit's radiographs fetched successfully",
    "CompleteFetchVisitRadiographDetails": "Visit's radiograph '{0}' fetched successfully",
    "CompleteAddVisitRadiograph": "Radiograph added successfully",
    "CompleteUpdateVisitRadiograph": "Radiograph updated successfully",
    "CompleteDeleteVisitRadiograph": "Radiograph deleted successfully",
    "VisitRadiographCodeNotFound": "Radiograph code '{0}' doesn't match our records",
    "PrescribedRadiographNotFound": ": Prescribed radigraph not found",
    "RadiographPurchaseNotFound": ": Radigraph purchase not found",
    "RadiographPurchaseAddFailed": "Failed to add radiograph purchase",
    "RadiographPurchaseCreated": "Radiograph purchase created successfully",
    "visitClaimedOrRequested": "Visit '{0}' is claimed or provider requested it",
    "AttachmentNull": "Invalid attachments",
    "AttachmentUploaded": "Attchment uploaded successfully",
    "PropertyNotFound": "Property {0} doesn't match out records",
    "DrugNotFound2": ": Drug not found",
    "DrugsGetDone": "Drugs list fetched successfully.",
    "DrugDetailsGetDone": "Drug '{0}' fetched successfully.",
    "DrugAddDone": "Drug created successfully.",
    "DrugDeleteFailed": "Drug '{0}' deletion failed.",
    "DrugDeleteDone": "Drug '{0}' deleted successfully.",
    "DrugModifyDone": "Drug '{0}' modified successfully.",
    "DrugPurchasesFetched": "Drug purchases fetched successfully",
    "DrugPurchaseFetched": "Drug purchase fetched successfully",
    "DrugPurchaseCreated": "Drug purchase created successfully",
    "DrugPurchaseNotFound": ": Drug purchase not found",
    "DrugPurchaseAddFailed": "Failed to add drug purchase",
    "LabTestPurchasesFeteched": "Lab test purchases fetched succesfully",
    "LabTestPurchaseFeteched": "Lab test purchase fetched succesfully",
    "LabTestsGetDone": "Lab tests list fetched successfully.",
    "LabTestDetailsGetDone": "Lab test '{0}' fetched successfully.",
    "LabTestAddDone": "Lab test created successfully.",
    "LabTestDeleteFailed": "Lab test '{0}' deletion failed.",
    "LabTestDeleteDone": "Lab test '{0}' deleted successfully.",
    "LabTestModifyDone": "Lab test '{0}' modified successfully.",
    "LabTestPurchaseCreated": "Lab test purchase created successfully",
    "LabTestPurchaseAddFailed": "Failed to add lab test purchase",
    "RadiographsGetDone": "Radiographs list fetched successfully.",
    "RadiographDetailsGetDone": "Radiograph '{0}' fetched successfully.",
    "RadiographAddDone": "Radiograph created successfully.",
    "RadiographDeleteFailed": "Radiograph '{0}' deletion failed.",
    "RadiographDeleteDone": "Radiograph '{0}' deleted successfully.",
    "RadiographModifyDone": "Radiograph '{0}' modified successfully.",
    "LabTestPriceAdmin": "Lab test price modification is allowed only for Administrators",
    "RadiographPriceAdmin": "Radiograph price modification is allowed only for Administrators",
    "RadiographPurchasesFetched": "Radiograph purchases feteched",
    "RadiographPurchaseFetched": "Radiograph purchase feteched",
    "PendingUserPhonesFetchDone": "Pending phone numbers fetched successfully.",
    "UserPhonesFetchDone": "User '{0}' phone numbers fetched successfully.",
    "UserPhonePostDone": "Phone number saved and it's waiting for admin to confirm.",
    "UserPhoneModifyDone": "Phone number modified successfully.",
    "UserPhoneConfirmDone": "Phone number confirmed successfully.",
    "UserPhoneDeletedDone": "Phone number deleted successfully.",
    "UserPhoneCodeNotFound": "User doesn't have this phone code",
    "UserPhoneAlreadyConfirmed": "User phone is already confirmed",
    "PendingUserEmailsFetchDone": "Pending emails fetched successfully.",
    "UserEmailsFetchDone": "User '{0}' emails fetched successfully.",
    "UserEmailPostDone": "Email saved and it's waiting for admin to confirm.",
    "UserEmailModifyDone": "Email modified successfully.",
    "UserEmailConfirmDone": "Email confirmed successfully.",
    "UserEmailDeletedDone": "Email deleted successfully.",
    "UserEmailCodeNotFound": "User doesn't have this email code",
    "UserEmailAlreadyConfirmed": "User email is already confirmed",
    "AddressCodeNotFound": "Address code '{0}' does not match our records",
    "addressPostDone": "Address added successfully.",
    "addressesFetchDone": "Addresses fetched successfully.",
    "Unauthorized": "You don't have access right",
    "NoDataFound": "Data not found {0}",
    "SPsConnectionsFetchDone": "Service providers and TPA connections fetched successfully",
    "SPsConnectionsInviteDone": "Service providers and TPA connection invitation added successfully",
    "SPsConnectionsModifyDone": "Service providers and TPA connection modified successfully",
    "connectionsSpTpaModifyFailed": "Service providers and TPA connection modification failed",
    "SPsConnectionsStatusDone": "Service providers and TPA connection status changed successfully",
    "connectionsSpTpaCodeNotFound": "Connection code not found",
    "connectionStatusNotAllowed": "You are not allowed to change connection's status into '{0}'",
    "patientPackageAddUnauthorized": "Your aren't allowed to access this action",
    "badPackageCodeToAddToPatient": "Invalid package code or Patient already own this package",
    "patientPackageSuspendDone": "Patient package suspended successfully",
    "patientPackageManageDone": "Patient package status managed successfully",
    "patientPackageFetchDone": "Package patients fetched successfully",
    "patientPackageAddDone": "Patient package added successfully",
    "spConnectionNotFoundOrNotApproved": "Bad service provider connection '{0}'. Possible reasons:\n- Connetion code is incorrect or is related to another SP.\n-Connection is not approved",
    "patientPackageNotFoundOrNotApproved": "Patient package not found or is not approved yet",
    "ServiceProviderStatusChangeDone": "Service provider status changed successfully",
    "ServiceStafferStatusChangeDone": "Service satffer status changed successfully",
    "PatientPackageNotFound": "Patient code '{0}' invalid or doesn't have package '{1}'",
    "badBaseVisitPatientMismatch": "Unable to accept '{0}' as base visit, patients don't match",
    "calimsFetchDenied": "You're not allowed to fetch calims as [{0}]. Denied",
    "visitClaimStatusOnlyPending": "Only pending claims are managable",
    "NoPendingRequests": "User '{0}' doesn't have pending request for this role",
    "PatientPackageStatusBad": "Not allowed status",
    "stafferMembershipNotRecognized": "You are not allowed to add visits. Possible reasons: \n-You're not already '{0}' or Your role is not activated yet.\nYour provider '{1}' is incorrect or his role is not activated at the momeent\n- Your connection isn't confirm",
    "invalidInsuranceCompaniesCodes": "One or more insurance compnies are not connected with {0}",
    "serviceProviderNotFound": "The given code does not match any of our records",
    "abacEntitiesFetched": "ABAC entities fetched successfully",
    "ruleRemoved": "Rule {0} removed successfully",
    "ruleAddFailed": "Failed to add rule",
    "ruleCodeNotFound": "Rule {0} not found",
    "ruleRemoveFailed": "Failed to remove rule {0}",
    "ruleUpdateFailed": "Failed to update rule {0}",
    "ruleModified": "Rule {0} modified successfully",
    "ruleDetailsFetched": "Rule {0} details fetched"
}